<?xml version="1.0" encoding="utf-8"?>
<svg version="1.1" id="Livello_1" xmlns="http://www.w3.org/2000/svg" xmlns:xlink="http://www.w3.org/1999/xlink" x="0px" y="0px"
	 viewBox="0 0 329.4 30.7" enable-background="new 0 0 329.4 30.7" xml:space="preserve">
<g>
	<path fill="#3C3C3B" d="M47.5,1.9h6.9l7.3,27.5h-5.8l-1.3-5.8h-7.3L46,29.4h-5.8L47.5,1.9z M48.3,19h5.4L51,6.6h-0.1L48.3,19z"/>
	<path fill="#3C3C3B" d="M63.6,1.9h10.3c4.5,0,7.3,2.4,7.3,7.1c0,3.7-1.5,6.1-4.6,6.8v0.1c3.8,0.5,4.4,2.6,4.4,8.4
		c0,2.9,0.2,4.4,1.2,4.9v0.2h-6c-0.5-0.8-0.7-1.8-0.7-2.9l-0.2-5.3c-0.1-2.2-1-3.5-3.3-3.5h-3v11.6h-5.6V1.9z M69.2,13.9h2.3
		c2.7,0,4.2-1.2,4.2-4.1c0-2.5-1.3-3.8-3.9-3.8h-2.6V13.9z"/>
	<path fill="#3C3C3B" d="M100.5,1.9v4.6h-6v23h-5.6v-23h-6V1.9H100.5z"/>
	<path fill="#3C3C3B" d="M106.1,1.9h6.9l7.3,27.5h-5.8l-1.3-5.8h-7.3l-1.3,5.8h-5.8L106.1,1.9z M106.8,19h5.4l-2.7-12.4h-0.1
		L106.8,19z"/>
	<path fill="#3C3C3B" d="M136.2,1.9v4.6h-6v23h-5.6v-23h-6V1.9H136.2z"/>
	<path fill="#3C3C3B" d="M154.7,1.9v4.6h-6v23h-5.6v-23h-6V1.9H154.7z"/>
	<path fill="#3C3C3B" d="M160.3,1.9h6.9l7.3,27.5h-5.8l-1.3-5.8h-7.3l-1.3,5.8H153L160.3,1.9z M161.1,19h5.4l-2.7-12.4h-0.1
		L161.1,19z"/>
	<path fill="#3C3C3B" d="M188.2,11.2c0-4-0.8-5.7-3.3-5.7c-2.8,0-3.5,2.8-3.5,10.6c0,8.3,1.2,9.8,3.5,9.8c2,0,3.5-1,3.5-7h5.6
		c0,5.9-1.5,11.1-8.8,11.1c-8.3,0-9.4-5.9-9.4-14.3s1-14.3,9.4-14.3c7.9,0,8.5,5.8,8.5,9.8H188.2z"/>
	<path fill="#3C3C3B" d="M202.7,1.9v11h0.1l7-11h6l-7.5,11.8l8.3,15.7h-6.2l-5.7-11.3l-2,3.1v8.2h-5.6V1.9H202.7z"/>
	<path fill="#3C3C3B" d="M239.3,10c0-2-0.9-4.6-3.2-4.6c-2.7,0-3.8,2.8-3.8,9.6c0,6.6,0.6,10.8,3.8,10.8c1.3,0,3.4-1.4,3.4-4.4v-2.8
		h-3.7v-4.1h9v14.8h-4.1v-2.5h-0.1c-1.3,2.2-3.2,3.1-5.8,3.1c-6.8,0-8.2-5.1-8.2-14.6c0-9.3,2.2-14,9.3-14c6.1,0,8.6,3.1,8.6,8.7
		H239.3z"/>
	<path fill="#3C3C3B" d="M248.5,1.9h10.3c4.5,0,7.3,2.4,7.3,7.1c0,3.7-1.5,6.1-4.6,6.8v0.1c3.8,0.5,4.4,2.6,4.4,8.4
		c0,2.9,0.2,4.4,1.2,4.9v0.2h-6c-0.5-0.8-0.7-1.8-0.7-2.9l-0.2-5.3c-0.1-2.2-1-3.5-3.3-3.5h-3v11.6h-5.6V1.9z M254,13.9h2.3
		c2.7,0,4.2-1.2,4.2-4.1c0-2.5-1.3-3.8-3.9-3.8H254V13.9z"/>
	<path fill="#3C3C3B" d="M278.7,1.3c8.3,0,9.4,5.9,9.4,14.3s-1,14.3-9.4,14.3c-8.3,0-9.4-5.9-9.4-14.3S270.4,1.3,278.7,1.3z
		 M278.7,25.8c3.3,0,3.8-2.8,3.8-10.2c0-7.4-0.5-10.2-3.8-10.2c-3.3,0-3.8,2.9-3.8,10.2C274.9,23,275.4,25.8,278.7,25.8z"/>
	<path fill="#3C3C3B" d="M296.6,1.9v19.2c0,2.7,0.7,4.8,3.2,4.8c2.6,0,3.2-2,3.2-4.8V1.9h5.6v19.2c0,7-4.3,8.9-8.8,8.9
		c-4.5,0-8.8-1.5-8.8-8.9V1.9H296.6z"/>
	<path fill="#3C3C3B" d="M312.1,1.9h9.7c5.6,0,7.6,4.1,7.6,8.3c0,5.7-3.5,8.3-8.8,8.3h-3v11h-5.6V1.9z M317.7,14.3h2.5
		c2.2,0,3.7-1.3,3.7-4.1c0-2.7-1.1-4.2-3.9-4.2h-2.3V14.3z"/>
</g>
<circle fill="#EF7D00" cx="15.3" cy="15.3" r="15.3"/>
</svg>
